module MARCOGPT

go 1.16

require (
	github.com/go-playground/locales v0.14.1 // indirect
	github.com/go-playground/validator v9.31.0+incompatible
	github.com/go-playground/validator/v10 v10.11.1 // indirect
	github.com/golang/snappy v0.0.4 // indirect
	github.com/google/uuid v1.3.0
	github.com/gorilla/mux v1.8.0
	github.com/joho/godotenv v1.4.0 // indirect
	github.com/klauspost/compress v1.15.15 // indirect
	github.com/montanaflynn/stats v0.7.0 // indirect
	github.com/xdg-go/scram v1.1.2 // indirect
	github.com/youmark/pkcs8 v0.0.0-20201027041543-1326539a0a0a // indirect
	go.mongodb.org/mongo-driver v1.11.1 // indirect
	golang.org/x/crypto v0.5.0 // indirect
	golang.org/x/sync v0.1.0 // indirect
)
